{
  "data": [
    {
      "id": "12341",
      "name": "Joseanne Viana",
      "address": {
        "city": "Lisboa",
        "state": "Lisboa",
        "postal_code": "1000549"
      },
      "position": "PhD Student"
    },
    {
      "id": "45678",
      "name": "Alfredo Batman",
      "address": {
        "city": "Porto",
        "state": "Porto",
        "postal_code": "2745114"
      },
      "position": "Master's Student"
    }
  ]
}